{
  "technique": "objs_culled_by_gpu.tech"
  ,
  "textures":
  {
    "albedo": "data/textures/weapons/shotgun/shotgun_albedo.dds"
    ,
    "normal": "data/textures/weapons/shotgun/shotgun_normal.dds"
    ,
    "metallic": "data/textures/weapons/shotgun/shotgun_metallic.dds"
    ,
    "roughness": "data/textures/weapons/shotgun/shotgun_roughness.dds"
    ,
    "height": "data/textures/weapons/shotgun/shotgun_height.dds"
    ,
    "ao": "data/textures/weapons/shotgun/shotgun_mixed_ao.dds"
  }
  ,
  "casts_shadows": true
  ,
  "shadows_material": "data/materials/shadows_instanced_gpu.material"
}
