[
	{
		"entity": {
		  "name": "Testing some weird shader to see if it works.",
		  "transform": {
			"pos": "0 0 0",
			"angles" : "0 0 0"
		  },
		  "render": {
			"color" : "1.0 1.0 1.0 1.0",
			"meshes": [
			  {
				"mesh": "unit_quad_xy_centered.mesh",
				"material": "data/materials/testGabiUvs.material"
			  }
			]
		  }
		}
	}
]