{
	"surfaces" : [
		{
			"surface_id" : "Enemy_Default",
			"surface_tags_needed" : ["enemy"]
		},
		{
			"surface_id" : "Immortal",
			"surface_tags_needed" : ["enemy", "inmortal"]
		},
		{
			"surface_id" : "Sand",
			"surface_tags_needed" : ["sand"]
		},
		{
			"surface_id" : "Wood",
			"surface_tags_needed" : ["wood"]
		},
		{
			"surface_id" : "Metal",
			"surface_tags_needed" : ["metal"]
		}
	]
}