{
  "technique": "objs_culled_by_gpu.tech"
  ,
  "textures":
  {
    "albedo": "data/textures/props/casa_uno_prefab/material_casauno_ventanas/casauno_ventanas_color.dds"
    ,
    "normal": "data/textures/props/casa_uno_prefab/material_casauno_ventanas/casauno_ventanas_color_Normal.dds"
    ,
    "metallic": "data/textures/props/casa_uno_prefab/material_casauno_ventanas/casauno_ventanas_Metallic.dds"
    ,
    "roughness": "data/textures/props/casa_uno_prefab/material_casauno_ventanas/casauno_ventanas_Roughness.dds"
    ,
    "emissive": "data/textures/null_emissive.dds"
    ,
    "height": "data/textures/null_height.dds"
    ,
    "ao": "data/textures/props/casa_uno_prefab/material_casauno_ventanas/casauno_ventanas_AO.dds"
  }
  ,
  "casts_shadows": true
  ,
  "shadows_material": "data/materials/shadows_instanced_gpu.material"
}
