[
    {
        "entity": {
            "name": "Blood",
            "prefab": "data/prefabs/decals/static/Blood1.json",
            "transform": {
                "angles": "89.999992, 0.000000, 0.000000",
                "pos": "-23.228197 0.305900 -6.491090"
            }
        }
    },
    {
        "entity": {
            "name": "Blood",
            "prefab": "data/prefabs/decals/static/Blood1.json",
            "transform": {
                "angles": "89.999992, 0.000000, 0.000000",
                "pos": "-23.928389 0.305900 -8.234076"
            }
        }
    },
    {
        "entity": {
            "name": "Blood2",
            "prefab": "data/prefabs/decals/static/Blood2.json",
            "transform": {
                "angles": "89.999992, 0.000000, 0.000000",
                "pos": "-24.339916 0.305896 -7.171679"
            }
        }
    },
    {
        "entity": {
            "name": "Blood3",
            "prefab": "data/prefabs/decals/static/Blood3.json",
            "transform": {
                "angles": "89.999992, 0.000000, 0.000000",
                "pos": "-24.612602 0.305895 -7.886976"
            }
        }
    },
    {
        "entity": {
            "name": "Blood3",
            "prefab": "data/prefabs/decals/static/Blood3.json",
            "transform": {
                "angles": "89.999992, 0.000000, 0.000000",
                "pos": "-21.668280 0.305914 -8.794149"
            }
        }
    },
    {
        "entity": {
            "name": "Blood2",
            "prefab": "data/prefabs/decals/static/Blood2.json",
            "transform": {
                "angles": "89.999992, 0.000000, 0.000000",
                "pos": "-20.751141 0.305917 -8.833755"
            }
        }
    },
    {
        "entity": {
            "name": "Blood",
            "prefab": "data/prefabs/decals/static/Blood1.json",
            "transform": {
                "angles": "89.999992, 0.000000, 0.000000",
                "pos": "-22.278912 0.305910 -9.866910"
            }
        }
    },
    {
        "entity": {
            "name": "Blood",
            "prefab": "data/prefabs/decals/static/Blood1.json",
            "transform": {
                "angles": "89.999992, 0.000000, 0.000000",
                "pos": "-23.095268 0.305903 -7.211870"
            }
        }
    },
    {
        "entity": {
            "name": "Blood3",
            "prefab": "data/prefabs/decals/static/Blood3.json",
            "transform": {
                "angles": "89.999992, 0.000000, 0.000000",
                "pos": "-23.147039 0.305899 -5.660777"
            }
        }
    },
    {
        "entity": {
            "name": "Blood2",
            "prefab": "data/prefabs/decals/static/Blood2.json",
            "transform": {
                "angles": "89.999992, 0.000000, 0.000000",
                "pos": "-23.265652 0.305873 -2.638699"
            }
        }
    },
    {
        "entity": {
            "name": "Blood",
            "prefab": "data/prefabs/decals/static/Blood1.json",
            "transform": {
                "angles": "89.999992, 0.000000, 0.000000",
                "pos": "-22.886909 0.305867 -1.969900"
            }
        }
    },
    {
        "entity": {
            "name": "Blood3",
            "prefab": "data/prefabs/decals/static/Blood3.json",
            "transform": {
                "angles": "89.999992, 0.000000, 0.000000",
                "pos": "-22.042358 0.305889 -3.828320"
            }
        }
    },
    {
        "entity": {
            "name": "Blood2",
            "prefab": "data/prefabs/decals/static/Blood2.json",
            "transform": {
                "angles": "89.999992, 0.000000, 0.000000",
                "pos": "-21.605793 0.305885 -3.197520"
            }
        }
    },
    {
        "entity": {
            "name": "Blood3",
            "prefab": "data/prefabs/decals/static/Blood3.json",
            "transform": {
                "angles": "89.999992, 0.000000, 0.000000",
                "pos": "-20.129711 0.305892 -3.722290"
            }
        }
    },
    {
        "entity": {
            "name": "Blood2",
            "prefab": "data/prefabs/decals/static/Blood2.json",
            "transform": {
                "angles": "89.999992, 0.000000, 0.000000",
                "pos": "-19.452374 0.305888 -3.235663"
            }
        }
    },
    {
        "entity": {
            "name": "Blood3",
            "prefab": "data/prefabs/decals/static/Blood3.json",
            "transform": {
                "angles": "89.999992, 0.000000, 0.000000",
                "pos": "-19.808769 0.305894 -3.901833"
            }
        }
    }
]
