# 3ds Max Wavefront OBJ Exporter v0.97b - (c)2007 guruware
# File Created: 02.11.2019 04:25:18

newmtl wire_027177088
	Ns 32
	d 1
	Tr 0
	Tf 1 1 1
	illum 2
	Ka 0.1059 0.6941 0.3451
	Kd 0.1059 0.6941 0.3451
	Ks 0.3500 0.3500 0.3500

newmtl Material__26
	Ns 10.0000
	Ni 1.5000
	d 1.0000
	Tr 0.0000
	Tf 1.0000 1.0000 1.0000 
	illum 2
	Ka 0.5880 0.5880 0.5880
	Kd 0.5880 0.5880 0.5880
	Ks 0.0000 0.0000 0.0000
	Ke 0.0000 0.0000 0.0000
	map_Ka Map__1_Checker.tga
	map_Kd Map__1_Checker.tga

newmtl wire_153228214
	Ns 32
	d 1
	Tr 0
	Tf 1 1 1
	illum 2
	Ka 0.6000 0.8941 0.8392
	Kd 0.6000 0.8941 0.8392
	Ks 0.3500 0.3500 0.3500

newmtl wire_057008136
	Ns 32
	d 1
	Tr 0
	Tf 1 1 1
	illum 2
	Ka 0.2235 0.0314 0.5333
	Kd 0.2235 0.0314 0.5333
	Ks 0.3500 0.3500 0.3500

newmtl wire_000000000
	Ns 32
	d 1
	Tr 0
	Tf 1 1 1
	illum 2
	Ka 0.0000 0.0000 0.0000
	Kd 0.0000 0.0000 0.0000
	Ks 0.3500 0.3500 0.3500

newmtl wire_087224198
	Ns 32
	d 1
	Tr 0
	Tf 1 1 1
	illum 2
	Ka 0.3412 0.8784 0.7765
	Kd 0.3412 0.8784 0.7765
	Ks 0.3500 0.3500 0.3500

newmtl wire_176026026
	Ns 32
	d 1
	Tr 0
	Tf 1 1 1
	illum 2
	Ka 0.6902 0.1020 0.1020
	Kd 0.6902 0.1020 0.1020
	Ks 0.3500 0.3500 0.3500

newmtl wire_225143087
	Ns 32
	d 1
	Tr 0
	Tf 1 1 1
	illum 2
	Ka 0.8824 0.5608 0.3412
	Kd 0.8824 0.5608 0.3412
	Ks 0.3500 0.3500 0.3500

newmtl Material__28
	Ns 10.0000
	Ni 1.5000
	d 1.0000
	Tr 0.0000
	Tf 1.0000 1.0000 1.0000 
	illum 2
	Ka 0.1412 0.0863 0.0314
	Kd 0.1412 0.0863 0.0314
	Ks 0.0000 0.0000 0.0000
	Ke 0.0000 0.0000 0.0000

newmtl Material__1253
	Ns 10.0000
	Ni 1.5000
	d 1.0000
	Tr 0.0000
	Tf 1.0000 1.0000 1.0000 
	illum 2
	Ka 0.4039 0.4039 0.4039
	Kd 0.4039 0.4039 0.4039
	Ks 0.0000 0.0000 0.0000
	Ke 0.0000 0.0000 0.0000

newmtl Material__25
	Ns 10.0000
	Ni 1.5000
	d 1.0000
	Tr 0.0000
	Tf 1.0000 1.0000 1.0000 
	illum 2
	Ka 0.3490 0.2745 0.2118
	Kd 0.3490 0.2745 0.2118
	Ks 0.0000 0.0000 0.0000
	Ke 0.0000 0.0000 0.0000

newmtl wire_088199225
	Ns 32
	d 1
	Tr 0
	Tf 1 1 1
	illum 2
	Ka 0.3451 0.7804 0.8824
	Kd 0.3451 0.7804 0.8824
	Ks 0.3500 0.3500 0.3500

newmtl wire_087225087
	Ns 32
	d 1
	Tr 0
	Tf 1 1 1
	illum 2
	Ka 0.3412 0.8824 0.3412
	Kd 0.3412 0.8824 0.3412
	Ks 0.3500 0.3500 0.3500

newmtl wire_195088225
	Ns 32
	d 1
	Tr 0
	Tf 1 1 1
	illum 2
	Ka 0.7647 0.3451 0.8824
	Kd 0.7647 0.3451 0.8824
	Ks 0.3500 0.3500 0.3500

newmtl wire_135110008
	Ns 32
	d 1
	Tr 0
	Tf 1 1 1
	illum 2
	Ka 0.5294 0.4314 0.0314
	Kd 0.5294 0.4314 0.0314
	Ks 0.3500 0.3500 0.3500

newmtl wire_204204204
	Ns 32
	d 1
	Tr 0
	Tf 1 1 1
	illum 2
	Ka 0.8000 0.8000 0.8000
	Kd 0.8000 0.8000 0.8000
	Ks 0.3500 0.3500 0.3500

newmtl wire_038021007
	Ns 32
	d 1
	Tr 0
	Tf 1 1 1
	illum 2
	Ka 0.1490 0.0824 0.0275
	Kd 0.1490 0.0824 0.0275
	Ks 0.3500 0.3500 0.3500

newmtl wire_135059008
	Ns 32
	d 1
	Tr 0
	Tf 1 1 1
	illum 2
	Ka 0.5294 0.2314 0.0314
	Kd 0.5294 0.2314 0.0314
	Ks 0.3500 0.3500 0.3500

newmtl wire_086086086
	Ns 32
	d 1
	Tr 0
	Tf 1 1 1
	illum 2
	Ka 0.3373 0.3373 0.3373
	Kd 0.3373 0.3373 0.3373
	Ks 0.3500 0.3500 0.3500

newmtl Material__913
	Ns 10.0000
	Ni 1.5000
	d 1.0000
	Tr 0.0000
	Tf 1.0000 1.0000 1.0000 
	illum 2
	Ka 0.5880 0.5880 0.5880
	Kd 0.5880 0.5880 0.5880
	Ks 0.0000 0.0000 0.0000
	Ke 0.0000 0.0000 0.0000

newmtl Material__695
	Ns 10.0000
	Ni 1.5000
	d 1.0000
	Tr 0.0000
	Tf 1.0000 1.0000 1.0000 
	illum 2
	Ka 0.5880 0.5880 0.5880
	Kd 0.5880 0.5880 0.5880
	Ks 0.0000 0.0000 0.0000
	Ke 0.0000 0.0000 0.0000

newmtl Material__693
	Ns 10.0000
	Ni 1.5000
	d 1.0000
	Tr 0.0000
	Tf 1.0000 1.0000 1.0000 
	illum 2
	Ka 0.5880 0.5880 0.5880
	Kd 0.5880 0.5880 0.5880
	Ks 0.0000 0.0000 0.0000
	Ke 0.0000 0.0000 0.0000
