[
  {
    "entity":
    {
      "name": "low_poly_balconfinal"
      ,
      "transform":
      {
        "pos": "0.0 0.0 0.0"
        ,
        "rotation": "0.0 0.0 0.0 1.0"
      }
      ,
      "collider":
      {
        "shapes":
        [
          {
            "shape": "trimesh"
            ,
            "collision_mesh": "data/meshes/arenas/balcon_arena_prefab/collider_low_poly_balconfinal.col_mesh"
            ,
            "group": "scenario"
          }
        ]
      }
      ,
      "render":
      {
        "mesh": "data/meshes/arenas/balcon_arena_prefab/low_poly_balconfinal.mesh"
        ,
        "color": "0.0 0.0 0.0 1.0"
        ,
        "can_be_instanced": true
        ,
        "materials":
        [
          "data/materials/arenas/balcon_arena_prefab/material_paredesbalconarena/material_paredesbalconarena.material"
          ,
          "data/materials/arenas/balcon_arena_prefab/material_ventanasbalconarena/material_ventanasbalconarena.material"
        ]
      }
      ,
      "abs_aabb":
      {
      }
    }
  }
]
