{
	"name" : "hints",
	"alias" :"hints",
	"children" : 
	[
		{
			"name": "hintWindow",
			"alias": "hintWindow",
			"position": "1920 10",
			"children": 
			[
				{
					"name" : "hintMovement",
					"alias" : "hintMovement", 
					"type" : "image",
					"texture" : "data/ui/textures/hints/hint1.dds",
					"size" : "517 88",
					"position" : "0 0",
					"visible" : false,
					"animations": [
						{"path": "data/ui/animations/HintFadeOut.json"},
						{"path": "data/ui/animations/HintFadeIn.json"}
					]
				},
				{
					"name" : "hintShoot",
					"alias" : "hintShoot", 
					"type" : "image",
					"texture" : "data/ui/textures/hints/hint2_2.dds",
					"size" : "517 88",
					"position" : "0 0",
					"visible" : false,
					"animations": [
						{"path": "data/ui/animations/HintFadeOut.json"},
						{"path": "data/ui/animations/HintFadeIn.json"}
					]
				},
				{
					"name" : "hintReload",
					"alias" : "hintReload", 
					"type" : "image",
					"texture" : "data/ui/textures/hints/hint3.dds",
					"size" : "517 88",
					"position" : "0 0",
					"visible" : false,
					"animations": [
						{"path": "data/ui/animations/HintFadeOut.json"},
						{"path": "data/ui/animations/HintFadeIn.json"}
					]
				},
				{
					"name" : "hintSpecial",
					"alias" : "hintSpecial", 
					"type" : "image",
					"texture" : "data/ui/textures/hints/hint4.dds",
					"size" : "517 316",
					"position" : "0 0",
					"visible" : false,
					"animations": [
						{"path": "data/ui/animations/HintFadeOut.json"},
						{"path": "data/ui/animations/HintFadeIn.json"}
					]
				},
				{
					"name" : "hintScythe",
					"alias" : "hintScythe", 
					"type" : "image",
					"texture" : "data/ui/textures/hints/hint5.dds",
					"size" : "517 88",
					"position" : "0 0",
					"visible" : false,
					"animations": [
						{"path": "data/ui/animations/HintFadeOut.json"},
						{"path": "data/ui/animations/HintFadeIn.json"}
					]
				},
				{
					"name" : "hintPerception",
					"alias" : "hintPerception", 
					"type" : "image",
					"texture" : "data/ui/textures/hints/hint6.dds",
					"size" : "517 88",
					"position" : "0 0",
					"visible" : false,
					"animations": [
						{"path": "data/ui/animations/HintFadeOut.json"},
						{"path": "data/ui/animations/HintFadeIn.json"}
					]
				},
				{
					"name" : "hintSanctuary",
					"alias" : "hintSanctuary", 
					"type" : "image",
					"texture" : "data/ui/textures/hints/hint7.dds",
					"size" : "517 88",
					"position" : "0 0",
					"visible" : false,
					"animations": [
						{"path": "data/ui/animations/HintFadeOut.json"},
						{"path": "data/ui/animations/HintFadeIn.json"}
					]
				}
			]
		}
	]
}   