{
	"name" : "interact",
	"alias" :"interact",
	"children" : 
	[
		{
			"name": "interact_widget",
			"type": "image",
			"texture": "data/ui/textures/interact/button.dds",
			"size": "100 100",
			"position": "0 0"
		},
		{
			"name": "interact_widget_xbox",
			"type": "image",
			"texture": "data/ui/textures/interact/buttonXbox.dds",
			"size": "100 100",
			"position": "0 0"
}
	]
}   