{
	"casts_shadows": false,
	"category": "decals_perception",
	"technique": "pbr_decals_totem.tech",
	"textures": {
		"albedo": "data/textures/totem/Totem.dds",
		"normal" : "data/textures/totem/TotemNormal.dds"
	}
}