[
  {
    "entity": {
      "name": "EnemyRanged",
      "transform": {
        "pos": "0 0 0",
        "rotation": "0.0 0.0 0.0 -1.0"
      },
      "tags": 
      @@arg=tags
      @default=
      [
        "enemy",
        "enemyRanged",
        "perception"
      ]
      @@end
      ,
      "render": {
        "color": "2.498 2.537255 0.1686 1",
        "meshes": [
          {
            "mesh": "data/skeletons/enemyRanged/enemyRanged.mesh",
            "material": "@@arg=material@default=data/materials/enemyRanged/enemyRanged.material@@end"
          },
          {
            "mesh": "data/skeletons/enemyRanged/enemyRanged.mesh",
            "material": "data/materials/enemyRanged/enemyRanged_perception.material",
            "state": 1,
            "state_id": "perception",
            "visible": false
          },
          {
            "mesh": "data/skeletons/enemyRanged/enemyRanged.mesh",
            "material": "data/materials/enemyRanged/enemyRanged_blended.material",
            "state": 2,
            "state_id": "blended",
            "visible": false
          },
          {
            "mesh": "data/skeletons/enemyRanged/enemyRanged.mesh",
            "material": "data/materials/red_skin.material",
            "state": 3,
            "visible": false
          },
          {
            "mesh": "data/skeletons/enemyRanged/enemyRanged.mesh",
            "material": "data/materials/enemyRanged/enemyRanged.material",
            "state": 4,
            "visible": false
          },
          {
            "mesh": "data/skeletons/enemyRanged/enemyRanged.mesh",
            "material": "data/materials/enemyRanged/enemyRanged_perception_xray.material",
            "state": 5,
            "state_id": "xray",
            "visible": false
          },
          {
            "mesh": "data/skeletons/enemyRanged/enemyRanged.mesh",
            "material": "data/materials/enemyRanged/enemyRanged_vanish.material",
            "state": 6,
            "state_id": "vanish",
            "visible": false
          }
        ]
      },
      "material_buffers": {
        "buffers": [
          {
            "buffer_name": "vanish",
            "activate_on_mesh_state": 6,
            "buffer_data": {
              "VanishInnerBorderColor": "0.64 0.2157 5.67451 1.0",
              "VanishInnerBorderSize": 0.230,
              "VanishOutterBorderColor": "3.14 0.0 0.4706 1.0",
              "VanishOutterBorderSize": 0.210,
              "VanishTotalTime": 3.0,
			  "VanishNoiseScale" : 6.0,
			  "VanishAddedIntensity" : 1.9
            }
          }
        ]
      },
      "floating_damage": {
        "text_color": "1 1 1 1",
        "outline_color": "0 0 0 1",
        "text_color_critical": "0.75 0 0 1",
        "outline_color_critical": "0 0 0 1",
        "offset": "0 -175"
      },
      "render_blending": {},
      "character_controller": {
        "movement_speed": @@arg=movement_speed@default=4@@end,
        "rotation_speed": @@arg=rotation_speed@default=8@@end
      },
      "collider": {
        "shape": "capsule",
        "controller": true,
        "radius": 0.5,
        "height": 1.5,
        "group": "enemy",
        "mask": [
          "scenario",
          "player",
          "enemy",
          "trigger"
        ],
        "railgun_collider": {
          "shape": "box",
          "half_size": "0.15 1.0 0.125",
          "dynamic": true,
          "offset": {
            "pos": "0.0 1.0 0.0"
          },
          "group": "ragdoll"
        }
      },
      "health_component": {
        "max_health": @@arg=max_health@default=160@@end,
        "death_sound_event": "event:/Enemies/Ranged/RangedDeath"
      },
      "ai_bt_enemy_ranged": {
        "name": "enemy ranged",
        "bt_file": "@@arg=bt_file@default=data/bt/ranged_attacker.bt@@end",
        "forget_distance": @@arg=forget_distance@default=1000@@end,
        "chase_again_distance": @@arg=chase_again_distance@default=8@@end,
        "is_arena": @@arg=is_arena@default=false@@end,
        "flinch_internal_chance_multiplier": @@arg=flinch_internal_chance_multiplier@default=3.0@@end,
        "fire_breath": 
        @@arg=fire_breath
        @default=
        {
          "damage": 2,
          "dps": 2,
          "min_time": 1.5,
          "max_time": 4
        }
        @@end
        ,
        "idle_war_time": @@arg=idle_war_time@default=0.2@@end,
        "vision_cone_angle": @@arg=vision_cone_angle@default=0.7854@@end,
        "vision_cone_depth": @@arg=vision_cone_depth@default=10@@end,
        "flinch_cooldown": @@arg=flinch_cooldown@default=5@@end,
        "waypoints": [@@arg=waypoints@default= @@end],
        "shoot_distance": @@arg=shoot_distance@default=5@@end,
        "min_time_to_cast_close_range": @@arg=min_time_to_cast_close_range@default=0.2@@end,
        "max_time_to_cast_close_range": @@arg=max_time_to_cast_close_range@default=1@@end,
        "min_time_to_cast_shooting": @@arg=min_time_to_cast_shooting@default=0.2@@end,
        "max_time_to_cast_shooting": @@arg=max_time_to_cast_shooting@default=1@@end,
        "time_between_shootings": @@arg=time_between_shootings@default=0.5@@end,
        "shout_surprise_sound_event": "event:/Enemies/Ranged/RangedSurprise",
        "shout_aggressive_sound_event": "event:/Enemies/Ranged/RangedShout",
        "cast_ice_sound_event": "event:/Enemies/Ranged/RangedIceCast",
        "shout_aggressive_chance": @@arg=shout_chance@default=0.025@@end,
        "shout_aggressive_cooldown": @@arg=shout_cooldown@default=4@@end,
        "drop_type": "@@arg=drop_type@default=Enemy_Ranged_Normal@@end",
        "drop_prob": @@arg=drop_prob@default=0.4@@end,
        "drop_position_offset": "0 1.2 0",
        "drop_min_position_noise": "-0.5 -0.5 -0.5",
        "drop_max_position_noise": "0.5 0.5 0.5",
        "drop_impulse": "0 3 0",
        "drop_min_impulse_noise": "-3 0 -3",
        "drop_max_impulse_noise": "3 0 3",
        "projectile_slots": 
        @@arg=projectile_slots
        @default=
        [
          "data/prefabs/enemies/ranged/iceShardProjectile.prefab",
          "data/prefabs/enemies/ranged/fireProjectile.json"
        ]
        @@end
        ,
        "shooting_offsets": 
        @@arg=shooting_offsets
        @default=
        [
          "0 2.2 -0.3",
          "0 2.2 -0.3"
        ]
        @@end
        ,
        "random_values": [
          {
            "node": "Decide\nif shoots",
            "values": [@@arg=shoot_chance@default=90@@end, @@arg=no_shoot_chance@default=10@@end]
          }
        ]
      },
      "local_aabb": {
        "center": "0 1 0",
        "half_size": "1 2 1"
      },
      "abs_aabb": {},
      "pathfinding_agent": {
        "navmesh": "navmesh_mapa_india"
      },
      "armature": {
        "src": "data/skeletons/enemyRanged/enemyRanged.skeleton"
      },
      "enemyRanged_animator": {
        "src": "data/fsm/enemyRanged.fsm"
      },
      "ragdoll": {
        "initial_force": 10
      },
      "status_effects": {},
      "hitboxes": {},
      "script": {
        "path": "data/scripts/game/enemies/enemyRanged.lua"
      },
      "feet_controller": {
        "bones": [
          {
            "foot_bone_name": "Bip001 L Foot",
            "downwards_direction": "1 0 0"
          },
          {
            "foot_bone_name": "Bip001 R Foot",
            "downwards_direction": "1 0 0"
          }
        ],
        "footsteps_sound_event": "event:/Enemies/Ranged/RangedBipedFootsteps"
      }
    }
  }
]