[
  {
    "entity": {
      "name": "EnemyRanged",
      "transform": {
        "pos": "0 0 0",
        "rotation": "0.0 0.0 0.0 -1.0"
      },
      "tags": [
        "enemy",
        "enemyRanged",
        "perception"
      ],
      "render": {
        "color": "2.498 2.537255 0.1686 1",
        "meshes": [
          {
            "mesh": "data/skeletons/enemyRanged/enemyRanged.mesh",
            "material": "data/materials/enemyRanged/enemyRanged.material"
          },
          {
            "mesh": "data/skeletons/enemyRanged/enemyRanged.mesh",
            "material": "data/materials/enemyRanged/enemyRanged_perception.material",
            "state": 1,
            "state_id": "perception",
            "visible": false
          },
          {
            "mesh": "data/skeletons/enemyRanged/enemyRanged.mesh",
            "material": "data/materials/enemyRanged/enemyRanged_blended.material",
            "state": 2,
            "state_id": "blended",
            "visible": false
          },
          {
            "mesh": "data/skeletons/enemyRanged/enemyRanged.mesh",
            "material": "data/materials/red_skin.material",
            "state": 3,
            "visible": false
          },
          {
            "mesh": "data/skeletons/enemyRanged/enemyRanged.mesh",
            "material": "data/materials/yellow_skin.material",
            "state": 4,
            "visible": false
          },
          {
            "mesh": "data/skeletons/enemyRanged/enemyRanged.mesh",
            "material": "data/materials/enemyRanged/enemyRanged_perception.material",
            "state": 5,
            "state_id": "xray",
            "visible": false
          }
        ]
      },
      "floating_damage": {
        "text_color": "1 1 1 1",
        "outline_color": "0 0 0 1",
        "text_color_critical": "0.95 0.75 0 1",
        "outline_color_critical": "0 0 0 1",
        "offset": "0 -175"
      },
      "render_blending": {},
      "local_aabb": {
        "center": "0 1 0",
        "half_size": "1 2 1"
      },
      "abs_aabb": {},
      "armature": {
        "src": "data/skeletons/enemyRanged/enemyRanged.skeleton"
      },
      "ragdoll": {},
      "hitboxes": {}
    }
  }
]