 [
	{
	    "entity":
	    {
	      "name": "meleeDeadTest",
	      "prefab": "data/prefabs/deadEnemies/enemyMelee.json",
	      "ragdoll": {
	        "dead_config": "data/prefabs/deadEnemies/ragdolls/melee001.json",
	        "static_body": true
	      }
	    }
	}
]