{
  "textures":
  {
    "albedo": "data/textures/weapons/rifle/rifle_albedo.dds"
    ,
    "normal": "data/textures/weapons/rifle/rifle_normal_openGL.dds"
    ,
    "metallic": "data/textures/weapons/rifle/rifle_metallic.dds"
    ,
    "roughness": "data/textures/weapons/rifle/rifle_roughness.dds"
    ,
    "height": "data/textures/weapons/rifle/rifle_height.dds"
  }
  ,
  "casts_shadows": true
  ,
  "shadows_material": "data/materials/shadows.material"
}
