{
  "technique": "objs_culled_by_gpu.tech"
  ,
  "textures":
  {
    "albedo": "data/textures/houses/casa_seis_prefab_tres/material_casaseis_tres/casa_seis_tres_Base_Color.dds"
    ,
    "normal": "data/textures/houses/casa_seis_prefab_tres/material_casaseis_tres/casa_seis_tres_Normal_OpenGL.dds"
    ,
    "metallic": "data/textures/houses/casa_seis_prefab_tres/material_casaseis_tres/casa_seis_tres_Metallic.dds"
    ,
    "roughness": "data/textures/houses/casa_seis_prefab_tres/material_casaseis_tres/casa_seis_tres_Roughness.dds"
    ,
    "emissive": "data/textures/null_emissive.dds"
    ,
    "height": "data/textures/null_height.dds"
    ,
    "ao": "data/textures/houses/casa_seis_prefab_tres/material_casaseis_tres/casa_seis_tres_Mixed_AO.dds"
  }
  ,
  "casts_shadows": true
  ,
  "shadows_material": "data/materials/shadows_instanced_gpu.material"
}
