{
  "presentation": {
    "vs_fx": "data/shaders/screen_quad.fx",
    "vdecl": "PosColor",
    "ps_fx": "data/shaders/presentation.fx",
    "z": "disable_all"
  },
  "combine_textures": {
    "vs_fx": "data/shaders/screen_quad.fx",
    "vdecl": "PosColor",
    "ps_fx": "data/shaders/screen_quad.fx",
    "z": "disable_all",
    "blend": "combinative"
  },
  "combine_textures_blend": {
    "vs_fx": "data/shaders/screen_quad.fx",
    "vdecl": "PosColor",
    "ps_fx": "data/shaders/screen_quad.fx",
    "z": "disable_all",
    "blend": "additive_by_src_alpha"
  },
  "texture_to_screen": {
    "vs_fx": "data/shaders/screen_quad.fx",
    "vdecl": "PosColor",
    "ps_fx": "data/shaders/screen_quad.fx",
    "z": "disable_all"
  },
  "debug_color": {
    "vs_fx": "data/shaders/basics.fx",
    "vdecl": "PosColor"
  },
  "debug_pos": {
    "vs_fx": "data/shaders/basics.fx",
    "vs": "VS_Pos",
    "vdecl": "Pos",
    "rs": "wireframe"
  },
  "debug_pos_skin": {
    "vs_fx": "data/shaders/basics.fx",
    "vs": "VS_skin",
    "vdecl": "PosNUvTanSkin",
    "rs": "wireframe",
	"z_state" : 1
  },
  "debug_pos_instanced": {
    "vs_fx": "data/shaders/basics.fx",
    "vs": "VS_PosInstanced",
    "vdecl": "Pos_x_Instance",
    "rs": "wireframe"
  },
  "debug_line": {
    "vs_fx": "data/shaders/basics.fx",
    "vs": "VS_DebugLine",
    "vdecl": "PosColor"
  },
  "objs": {
    "vs_fx": "data/shaders/pbr.fx",
    "vdecl": "PosNUvT"
  },
  "objs_no_culling": {
    "vs_fx": "data/shaders/pbr.fx",
    "vdecl": "PosNUvT",
    "rs": "cull_none"
  },
  "objs_alpha": {
    "desc": "Used for rendering objects with alpha.",
    "vs_fx": "data/shaders/pbr.fx",
    "vs": "VS",
    "vdecl": "PosNUvT",
    "rs": "cull_none",
    "ps": "PS_Alpha"
  },
  "PosNUv_objs": {
    "vs_fx": "data/shaders/PosNUv_objs.fx",
    "vdecl": "PosNUv"
  },
  "objs_fresnel": {
    "vs_fx": "data/shaders/pbr.fx",
    "ps_fx": "data/shaders/pbr_special_effects.fx",
    "ps": "PS_Fresnel",
    "vdecl": "PosNUvT"
  },
  "melee_buffed":{
    "vs" : "VS_skin",
    "vs_fx": "data/shaders/pbr.fx",
    "ps_fx": "data/shaders/pbr_special_effects.fx",
    "ps": "PS_MeleeBuffed",
    "vdecl": "PosNUvTanSkin",
    "noise": "data/textures/noise_cloud2.dds",
	"z_state" : 1
  },
  "objs_blended" : {
    "desc" : "Used for rendering objects blended.",
    "vs_fx" : "data/shaders/pbr.fx",
  	"vs" : "VS",
  	"vdecl" : "PosNUvT"
  },
  "objs_blended_no_backface_culling": {
    "desc": "Used for rendering objects blended.",
    "vs_fx": "data/shaders/pbr.fx",
    "vs": "VS",
    "vdecl": "PosNUvT",
    "rs": "cull_none"
  },
  "objs_skin": {
    "desc": "Used for rendering skinned objects.",
    "vs_fx": "data/shaders/pbr.fx",
    "vs": "VS_skin",
    "vdecl": "PosNUvTanSkin",
	"z_state" : 1
  },
  "objs_skin_blended": {
    "desc": "Used for rendering skinned objects blended.",
    "vs_fx": "data/shaders/pbr.fx",
    "vs": "VS_skin",
    "vdecl": "PosNUvTanSkin",
	"z_state" : 1
  },
  "objs_mix": {
    "vs_fx": "data/shaders/pbr.fx",
    "vdecl": "PosNUvT",
    "ps": "PS_gbuffer_mix"
  },
  "parallax": {
    "desc": "Used for rendering objects with a parallax effect.",
    "vs_fx": "data/shaders/parallax.fx",
    "vs": "VS_Parallax",
    "vdecl": "PosNUvT",
    "ps_fx": "data/shaders/parallax.fx",
    "ps": "PS_Parallax"
  },
  "perception_objs": {
    "desc": "Used for rendering of normal objects in perception.",
    "vs_fx": "data/shaders/pbr.fx",
    "vs": "VS",
    "vdecl": "PosNUvT",
    "ps_fx": "data/shaders/pbr-perception.fx",
    "ps": "PS_PERCEPTION"
  },
  "perception_skinned": {
    "desc": "Used for rendering of skinned objects in perception.",
    "vs_fx": "data/shaders/pbr.fx",
    "vs": "VS_skin",
    "vdecl": "PosNUvTanSkin",
    "ps_fx": "data/shaders/pbr-perception.fx",
    "ps": "PS_PERCEPTION",
	"z_state" : 1
  },
  "perception_xray": {
    "desc": "Used for rendering of objects in perception.",
    "vs_fx": "data/shaders/pbr.fx",
    "vs": "VS",
    "vdecl": "PosNUvT",
    "ps_fx": "data/shaders/perception.fx",
    "ps": "PS_PERCEPTION_XRAY",
    "z": "xray",
	"z_state" : 1
  },
  "perception_skinned_xray": {
    "desc": "Used for rendering of skinned objects in perception.",
    "vs_fx": "data/shaders/basics.fx",
    "vs": "VS_skin",
    "vdecl": "PosNUvTanSkin",
    "ps_fx": "data/shaders/perception.fx",
    "ps": "PS_PERCEPTION_XRAY",
    "z": "xray",
	"z_state" : 1
  },
  "perception_scenario_outline": {
    "desc": "Used for applying edges to the scenario for a 'perceptive' effect.",
    "vs_fx": "data/shaders/screen_quad.fx",
    "vdecl": "PosColor",
    "ps_fx": "data/shaders/perception.fx",
    "ps": "PS_Perception_Scenario_Outline",
    "z": "disable_all"
  },
  "perception_objects_outline": {
    "desc": "Used for applying edges to the objects for a 'perceptive' effect.",
    "vs_fx": "data/shaders/screen_quad.fx",
    "vdecl": "PosColor",
    "ps_fx": "data/shaders/perception.fx",
    "ps": "PS_Perception_Objects_Outline",
    "z": "disable_all"
  },
  "perception_objects_outline_additive": {
    "desc": "Used for applying edges to the objects for a 'perceptive' effect.",
    "vs_fx": "data/shaders/screen_quad.fx",
    "vdecl": "PosColor",
    "ps_fx": "data/shaders/screen_quad.fx",
    "blend": "additive",
    "z": "disable_all"
  },
  "objs_instanced": {
    "desc": "Instances controlled by another vertex buffer. decl is decl_mesh1_x_decl_mesh2",
    "vs_fx": "data/shaders/pbr.fx",
    "vs": "VS_instanced",
    "vdecl": "PosNUvT_x_Instance"
  },
  "objs_num_instances": {
    "desc": "Instances controlled by num_instances component. Normal obj decl. Ps is the default pbr in pbr.fx",
    "vs_fx": "data/shaders/gpu_particles_orbit.fx",
    "vdecl": "PosNUvT",
    "ps_fx": "data/shaders/pbr.fx",
    "gpu_buffers": {
      "instances": 0
    }
  },
  "objs_culled_by_gpu": {
    "desc": "Instances result of gpu_culling",
    "vs_fx": "data/shaders/gpu_culling.fx",
    "vdecl": "PosNUvT",
    "ps_fx": "data/shaders/pbr.fx",
    "gpu_buffers": {
      "culled_instances": 0
    }
  },
  "objs_culled_by_gpu_no_culling": {
    "desc": "Instances result of gpu_culling",
    "vs_fx": "data/shaders/gpu_culling.fx",
    "vdecl": "PosNUvT",
    "ps_fx": "data/shaders/pbr.fx",
    "rs": "cull_none",
    "gpu_buffers": {
      "culled_instances": 0
    }
  },
  "objs_alpha_culled_by_gpu": {
    "desc": "Instances result of gpu_culling",
    "vs_fx": "data/shaders/gpu_culling.fx",
    "vdecl": "PosNUvT",
    "ps_fx": "data/shaders/pbr.fx",
    "ps": "PS_Alpha",
    "rs": "cull_none",
    "gpu_buffers": {
      "culled_instances": 0
    }
  },
  "shadows": {
    "desc": "Renders shadows for normal objects.",
    "vs_fx": "data/shaders/shadows.fx",
    "vdecl": "Pos",
    "ps": "",
    "rs": "shadows"
  },
  "shadows_no_culling": {
    "desc": "Renders shadows for normal objects.",
    "vs_fx": "data/shaders/shadows.fx",
    "vdecl": "Pos",
    "ps": "",
    "rs": "shadows_no_cull"
  },
  "shadows_skin": {
    "desc": "Renders shadows from skinned object.",
    "vs_fx": "data/shaders/shadows.fx",
    "vs": "VS_skin",
    "vdecl": "PosNUvTanSkin",
    "ps": "",
    "rs": "shadows",
	"z_state" : 1
  },
  "shadows_alpha": {
    "desc": "Renders shadows from skinned object.",
    "vs_fx": "data/shaders/shadows.fx",
    "vs": "VS_Alpha",
    "vdecl": "PosNUv",
    "ps": "PS_Alpha_Shadows",
    "rs": "shadows_no_cull"
  },
  "shadows_instanced": {
    "desc": "Renders instanced shadows.",
    "vs_fx": "data/shaders/shadows.fx",
    "vs": "VS_instanced",
    "vdecl": "Pos_x_Instance",
    "ps": "",
    "rs": "shadows"
  },
  "shadows_instanced_alpha": {
    "desc": "Renders instanced shadows of materials with an alpha, like tree leaves.",
    "vs_fx": "data/shaders/shadows.fx",
    "vs": "VS_instanced_Alpha",
    "vdecl": "PosNUv_x_Instance",
    "ps": "PS_Alpha_Shadows",
    "rs": "shadows_no_cull"
  },
  "shadows_instanced_culling": {
    "desc": "Renders GPU culled instanced shadows.",
    "vs_fx": "data/shaders/gpu_culling.fx",
    "vs": "VS_SHADOWS",
    "vdecl": "Pos",
    "ps": "",
    "rs": "shadows",
    "gpu_buffers": {
      "culled_instances": 0
    }
  },
  "shadows_instanced_culling_no_culling": {
    "desc": "Renders GPU culled instanced shadows.",
    "vs_fx": "data/shaders/gpu_culling.fx",
    "vs": "VS_SHADOWS",
    "vdecl": "Pos",
    "ps": "",
    "rs": "shadows_no_cull",
    "gpu_buffers": {
      "culled_instances": 0
    }
  },
  "shadows_instanced_culling_alpha": {
    "desc": "Renders GPU culled instanced shadows of materials with an alpha, like tree leaves.",
    "vs_fx": "data/shaders/gpu_culling.fx",
    "vs": "VS_SHADOWS_ALPHA",
    "vdecl": "PosNUv",
    "ps_fx": "data/shaders/shadows.fx",
    "ps": "PS_Alpha_Shadows",
    "rs": "shadows_no_cull",
    "gpu_buffers": {
      "culled_instances": 0
    }
  },
  "gbuffer_resolve": {
    "desc": "Combines the inputs from the deferred returning the final result.",
    "vs_fx": "data/shaders/screen_quad.fx",
    "vdecl": "PosColor",
    "ps_fx": "data/shaders/pbr.fx",
    "ps": "PS_GBuffer_Resolve",
    "z": "disable_all"
  },
  "pbr_ambient": {
    "desc": "Renders the ambient light into the scene.",
    "vs_fx": "data/shaders/screen_quad.fx",
    "vdecl": "PosColor",
    "ps_fx": "data/shaders/pbr.fx",
    "ps": "PS_Ambient",
    "z": "disable_all",
    "envmap": "data/textures/cubemaps/skybox_dia.dds",
    "irradiance": "data/textures/cubemaps/skybox_dia_iem.dds",
	"envmap2": "data/textures/cubemaps/skybox_tarde.dds",
    "irradiance2": "data/textures/cubemaps/skybox_tarde_iem.dds"
  },
  "pbr_ambient_combinative": {
    "desc": "Renders the ambient light into the scene.",
    "vs_fx": "data/shaders/screen_quad.fx",
    "vdecl": "PosColor",
    "ps_fx": "data/shaders/pbr.fx",
    "ps": "PS_Ambient_Decals",
	"blend" : "combinative_gbuffer",
    "z": "disable_all"
  },
  "pbr_skybox": {
    "desc": "Renders a skybox in the scene.",
    "vs_fx": "data/shaders/pbr.fx",
    "vs": "VS_skybox",
    "vdecl": "PosColor",
    "ps_fx": "data/shaders/pbr.fx",
    "ps": "PS_skybox",
    "z": "test_equal",
    "envmap": "data/textures/cubemaps/skybox_dia.dds",
    "irradiance": "data/textures/cubemaps/skybox_dia_iem.dds",
	"envmap2": "data/textures/cubemaps/skybox_tarde.dds",
    "irradiance2": "data/textures/cubemaps/skybox_tarde_iem.dds"
  },
  "pbr_point_lights": {
    "desc": "Used for rendering point lights.",
    "vs_fx": "data/shaders/pbr.fx",
    "vs": "VS_pass",
    "ps": "PS_point_lights",
    "vdecl": "Pos",
    "z": "inverse_test_no_write",
    "rs": "reverse_culling",
    "blend": "additive"
  },
  "pbr_dir_lights": {
    "desc": "Used for rendering directiona lights like the sun.",
    "vs_fx": "data/shaders/pbr.fx",
    "vs": "VS_LightDir_Pass",
    "ps": "PS_dir_lights",
    "vdecl": "Pos",
    "z": "disable_all",
    "blend": "additive"
  },
  "pbr_spot_lights": {
    "desc": "Used for rendering spot lights",
    "vs_fx": "data/shaders/pbr.fx",
    "vs": "VS_pass",
    "ps": "PS_spot_lights",
    "vdecl": "Pos",
    "z": "inverse_test_no_write",
    "rs": "reverse_culling",
    "blend": "additive"
  },
  "pbr_decals": {
    "desc": "Used for rendering decals like posters or other decals that don't get colored. This technique is used if no instancing is done.",
    "vs_fx": "data/shaders/pbr_decals.fx",
    "vdecl": "PosNUvT",
    "vs": "VS",
    "ps": "PS",
    "blend": "combinative_gbuffer",
    "rs": "reverse_culling",
    "z": "inverse_test_no_write"
  },
  "pbr_decals_colored": {
    "desc": "Used for rendering decals like blood or bullet holes that can be colored. This technique is used if no instancing is done.",
    "vs_fx": "data/shaders/pbr_decals.fx",
    "vdecl": "PosNUvT",
    "vs": "VS",
    "ps": "PS_COLORED",
    "blend": "combinative_gbuffer",
    "rs": "reverse_culling",
    "z": "inverse_test_no_write"
  },
  "pbr_decals_gpu_culled": {
    "desc": "Used for rendering decals that can be gpu culled and are not colored. Used for static decals that don't disappear with time.",
    "vs_fx": "data/shaders/pbr_decals.fx",
    "vdecl": "PosNUvT_x_InstanceColor",
    "vs": "VS_STATIC_GPU_CULLING",
    "ps": "PS",
    "blend": "combinative_gbuffer",
    "rs": "reverse_culling",
    "z": "inverse_test_no_write",
    "gpu_buffers": {
      "culled_instances": 0
    }
  },
  "pbr_decals_colored_gpu_culled": {
    "desc": "Used for rendering decals that can be gpu culled and are not colored. Used for static decals that don't disappear with time.",
    "vs_fx": "data/shaders/pbr_decals.fx",
    "vdecl": "PosNUvT_x_InstanceColor",
    "vs": "VS_STATIC_GPU_CULLING",
    "ps": "PS_COLORED",
    "blend": "combinative_gbuffer",
    "rs": "reverse_culling",
    "z": "inverse_test_no_write",
    "gpu_buffers": {
      "culled_instances": 0
    }
  },
  "pbr_decals_dynamic_instanced": {
    "desc": "Used for rendering decals like blood or bullet holes. Used by dynamic decals who get no right now and disappear with time or after a certain number is passed.",
    "vs_fx": "data/shaders/pbr_decals.fx",
    "vs": "VS_DYNAMIC_INSTANCED",
    "vdecl": "PosNUvT_x_InstanceColorFadeTime",
    "ps": "PS",
    "blend": "combinative_gbuffer",
    "rs": "reverse_culling",
    "z": "inverse_test_no_write"
  },
  "pbr_decals_dynamic_colored_instanced": {
    "desc": "Used for rendering decals like blood or bullet holes. Used by dynamic decals who get no right now and disappear with time or after a certain number is passed.",
    "vs_fx": "data/shaders/pbr_decals.fx",
    "vs": "VS_DYNAMIC_INSTANCED",
    "vdecl": "PosNUvT_x_InstanceColorFadeTime",
    "ps": "PS_COLORED",
    "blend": "combinative_gbuffer",
    "rs": "reverse_culling",
    "z": "inverse_test_no_write"
  },
  "pbr_decals_totem": {
    "desc": "Special decal for the sigil decal of the totem.",
    "vs_fx": "data/shaders/pbr_decals.fx",
    "vdecl": "PosNUvT",
    "vs": "VS",
    "ps": "PS_Totem",
    "blend": "combinative_gbuffer",
    "rs": "reverse_culling",
    "z": "inverse_test_no_write"
  },
  "water": {
    "desc": "This shader simulates water.",
    "vs_fx": "data/shaders/water.fx",
    "vdecl": "PosNUvT",
    "noise": "data/textures/noise_cloud2.dds",
	"envmap": "data/textures/cubemaps/skybox_dia.dds"
  },
  "water_static": {
    "desc": "This shader simulates a plane of water.",
    "vs_fx": "data/shaders/water_static.fx",
    "vdecl": "PosNUvT",
    "noise": "data/textures/noise_cloud2.dds",
	"envmap": "data/textures/cubemaps/skybox_dia.dds"
  },
  "water_static_corrupted": {
    "desc": "This shader simulates a plane of water.",
    "vs_fx": "data/shaders/water_static.fx",
    "vdecl": "PosNUvT",
	"ps" : "PS_CORRUPTED",
    "noise": "data/textures/noise_cloud2.dds",
	"envmap": "data/textures/cubemaps/skybox_dia.dds"
  },
  "fog": {
    "desc": "Applies a fog effect to the image as a post processing effect.",
    "vs_fx": "data/shaders/screen_quad.fx",
    "vs": "VS",
    "vdecl": "PosColor",
    "ps_fx": "data/shaders/fog.fx",
    "ps": "PS_Apply_Fog",
    "z": "disable_all"
  },
  "vignetting": {
    "desc": "Applies a vignetting effect to the image as a post processing effect.",
    "vs_fx": "data/shaders/screen_quad.fx",
    "vs": "VS",
    "vdecl": "PosColor",
    "ps_fx": "data/shaders/vignetting.fx",
    "ps": "PS_VIGNETTING",
    "z": "disable_all"
  },
  "burning_fade": {
    "desc": "Applies Ambient Occlusion to the image.",
    "vs_fx": "data/shaders/screen_quad.fx",
    "vs": "VS",
    "vdecl": "PosColor",
    "ps_fx": "data/shaders/burning_fade.fx",
    "ps": "PS_BURNING_FADE",
    "z": "disable_all"
  },
  "ao": {
    "desc": "Applies Ambient Occlusion to the image.",
    "vs_fx": "data/shaders/ao.fx",
    "vdecl": "PosColor",
    "z": "disable_all"
  },
  "motion_blur": {
    "desc": "Applies a motion blur effect to the image.",
    "vs_fx": "data/shaders/screen_quad.fx",
    "ps_fx": "data/shaders/motion_blur.fx",
    "ps": "PS_MOTION_BLUR",
    "vdecl": "PosColor",
    "z": "disable_all"
  },
  "blur": {
    "desc": "Blurs a image.",
    "vs_fx": "data/shaders/blur.fx",
    "vdecl": "PosColor",
    "z": "disable_all"
  },
  "focus": {
    "desc": "Applies a focus post process effect. Blur must be active.",
    "vs_fx": "data/shaders/focus.fx",
    "vdecl": "PosColor",
    "z": "disable_all"
  },
  "bloom_filter": {
    "desc": "Selects which pixels will create the bloom effect",
    "vs_fx": "data/shaders/screen_quad.fx",
    "ps_fx": "data/shaders/bloom.fx",
    "ps": "PS_filter",
    "vdecl": "PosColor",
    "z": "disable_all"
  },
  "bloom_add": {
    "desc": "Combines all blurred steps of the bloom into the final stage",
    "vs_fx": "data/shaders/screen_quad.fx",
    "ps_fx": "data/shaders/bloom.fx",
    "ps": "PS_add",
    "vdecl": "PosColor",
    "z": "disable_all",
    "blend": "additive"
  },
  "vision_penalty": {
    "desc": "Applies a corruption effect over the image to serve as a vision penalty.",
    "vs_fx": "data/shaders/screen_quad.fx",
    "vs": "VS",
    "vdecl": "PosColor",
    "ps_fx": "data/shaders/vision-penalty.fx",
    "ps": "PS_CORRUPTION",
    "z": "disable_all"
  },
  "perception_screen": {
    "desc": "First pass of the perception filter. Applies coloring to the non perceptive objects.",
    "vs_fx": "data/shaders/perception.fx",
    "vs": "VS",
    "vdecl": "PosColor",
    "ps": "PS_Perception_Colorized",
    "z": "disable_all"
  },
  "perception_screen_second": {
    "desc": "Second pass of the perception filter. Applies filters to the scene for the perception mode.",
    "vs_fx": "data/shaders/perception.fx",
    "vs": "VS",
    "vdecl": "PosColor",
    "ps": "PS",
    "z": "disable_all"
  },
  "fxaa_antialiasing": {
    "desc": "Applies FXAA to the final image.",
    "vs_fx": "data/shaders/screen_quad.fx",
    "vs": "VS",
    "vdecl": "PosColor",
    "ps_fx": "data/shaders/fxaa.fx",
    "ps": "PS_FXAA",
    "z": "disable_all"
  },
  "light_scattering_silhouette": {
    "desc": "Generates a silhouette from a depth texture that will be used for light scattering.",
    "vs_fx": "data/shaders/screen_quad.fx",
    "vs": "VS",
    "vdecl": "PosColor",
    "ps_fx": "data/shaders/light_scattering.fx",
    "ps": "PS_SILHOUETTE",
    "z": "disable_all"
  },
  "light_scattering_god_rays_generation": {
    "desc": "Generates a silhouette from a depth texture that will be used for light scattering.",
    "vs_fx": "data/shaders/screen_quad.fx",
    "vs": "VS",
    "vdecl": "PosColor",
    "ps_fx": "data/shaders/light_scattering.fx",
    "ps": "PS_GOD_RAYS",
    "z": "disable_all"
  },
  "ligh_scattering_additive": {
    "desc": "Generates a silhouette from a depth texture that will be used for light scattering.",
    "vs_fx": "data/shaders/screen_quad.fx",
    "vs": "VS",
    "vdecl": "PosColor",
    "blend": "additive",
    "z": "disable_all"
  },
  "basic_billboard_cylindrical": {
    "desc": "Billboarding basic shader that implements cylyndrical billboarding.",
    "vs_fx": "data/shaders/billboarding.fx",
    "vs": "VS_CYLINDRICAL",
    "vdecl": "PosUv",
    "ps": "PS_Billboard"
  },
  "basic_billboard_cylindrical_cheated": {
    "desc": "Billboarding basic shader that implements cylyndrical billboarding.",
    "vs_fx": "data/shaders/billboarding.fx",
    "vs": "VS_CYLINDRICAL_CHEATED",
    "vdecl": "PosUv",
    "ps": "PS_Billboard"
  },
  "basic_billboard_spherical": {
    "desc": "Billboarding basic shader that implements spherical billboarding.",
    "vs_fx": "data/shaders/billboarding.fx",
    "vs": "VS_SPHERICAL",
    "vdecl": "PosUv",
    "ps": "PS_Billboard"
  },
  "basic_billboard_spherical_cheated": {
    "desc": "Billboarding basic shader that implements spherical billboarding.",
    "vs_fx": "data/shaders/billboarding.fx",
    "vs": "VS_SPHERICAL_CHEATED",
    "vdecl": "PosUv",
    "ps": "PS_Billboard"
  },
  "cs_particles_orbit": {
    "cs": "cs_particles_orbit",
    "cs_fx": "data/shaders/gpu_particles_orbit.fx"
  },
  "instances_particles_combinative": {
    "desc": "updated by cpu, render gpu using instanced",
    "vs_fx": "data/shaders/particles_instanced.fx",
    "vdecl": "PosUvColor_x_ParticleRenderData",
    "blend": "combinative",
    "z": "test_but_no_write"
  },
  "instances_particles_additive": {
    "desc": "updated by cpu, render gpu using instanced",
    "vs_fx": "data/shaders/particles_instanced.fx",
    "vdecl": "PosUvColor_x_ParticleRenderData",
    "blend": "additive",
    "z": "test_but_no_write"
  },
  "instances_particles_combinative_spherical": {
    "desc": "updated by cpu, render gpu using instanced",
    "vs_fx": "data/shaders/particles_instanced.fx",
    "vs": "VS_SPHERICAL",
    "ps": "PS_SPHERICAL",
    "vdecl": "PosUvColor_x_ParticleRenderData",
    "blend": "combinative",
    "z": "disable_all"
  },
  "instances_particles_mesh": {
    "desc": "updated by cpu, render gpu using instanced",
    "vs_fx": "data/shaders/particles_instanced.fx",
    "vdecl": "PosNUvColor_x_ParticleRenderData",
    "vs": "VS_MESH",
    "ps": "PS_MESH",
    "blend": "combinative"
  },
  "instances_particles_test": {
    "desc": "updated by cpu, render gpu using instanced",
    "vs_fx": "data/shaders/particles_instanced.fx",
    "vdecl": "PosUvColor_x_ParticleRenderData",
    "blend": "additive",
    "rs": "wireframe",
    "z": "test_but_no_write"
  },
  "vanish": {
    "desc": "Used for vanishing meshes in a cool way",
    "vs_fx": "data/shaders/pbr.fx",
    "vs": "VS_skin",
    "ps_fx": "data/shaders/vanish.fx",
    "ps": "PS_VANISH_DR",
    "vdecl": "PosNUvTanSkin",
    "noise": "data/textures/noise_cloud2.dds",
	"z_state" : 1
  },
  "vanish_objs": {
    "desc": "Used for vanishing meshes in a cool way",
    "vs_fx": "data/shaders/pbr.fx",
    "vs": "VS",
    "ps_fx": "data/shaders/vanish.fx",
    "ps": "PS_VANISH_DR",
    "vdecl": "PosNUvT",
    "noise": "data/textures/noise_cloud2.dds"
  },
  "healthpowerup": {
    "desc": "Used for the health powerUp",
    "vs_fx": "data/shaders/pbr.fx",
    "vs": "VS",
    "vdecl": "PosNUvT",
    "ps_fx": "data/shaders/healthpowerup.fx",
    "ps": "PS_HEALTH",
    "noise": "data/textures/noise_cloud2.dds"
  },
  "smgAmmoPickup": {
    "desc": "Used for the smg ammo pickup",
    "vs_fx": "data/shaders/pbr.fx",
    "vs": "VS",
    "vdecl": "PosNUvT",
    "ps_fx": "data/shaders/ammoPickup.fx",
    "ps": "PS_SMG"
  },
  "shotgunAmmoPickup": {
    "desc": "Used for the shotgun ammo pickup",
    "vs_fx": "data/shaders/pbr.fx",
    "vs": "VS",
    "vdecl": "PosNUvT",
    "ps_fx": "data/shaders/ammoPickup.fx",
    "ps": "PS_SHOTGUN"
  },
  "rifleAmmoPickup": {
    "desc": "Used for the rifle ammo pickup",
    "vs_fx": "data/shaders/pbr.fx",
    "vs": "VS",
    "vdecl": "PosNUvT",
    "ps_fx": "data/shaders/ammoPickup.fx",
    "ps": "PS_RIFLE"
  },
  "specialAmmoPickup": {
    "desc": "Used for the special ammo pickup",
    "vs_fx": "data/shaders/pbr.fx",
    "vs": "VS",
    "vdecl": "PosNUvT",
    "ps_fx": "data/shaders/ammoPickup.fx",
    "ps": "PS_SPECIAL"
  },
  "vortex": {
    "desc": "Used for the vortex power",
    "vs_fx": "data/shaders/vortex.fx",
    "vs": "VS",
    "ps_fx": "data/shaders/vortex.fx",
    "ps": "PS_VORTEX",
    "vdecl": "PosNUvT",
    "noise": "data/textures/seamlessNoise.dds",
    "rs": "cull_none"
  },
  "cs_cull_instances": {
    "cs": "cs_cull_instances",
    "cs_fx": "data/shaders/gpu_culling.fx"
  },
  "ui": {
    "vs_fx": "data/shaders/ui.fx",
    "vdecl": "PosUvColor",
    "blend": "combinative",
    "z": "disable_all"
  },
  "ui_additive": {
    "vs_fx": "data/shaders/ui.fx",
    "vdecl": "PosUvColor",
    "blend": "additive",
    "z": "disable_all"
  },
  "ui_masking": {
    "vs_fx": "data/shaders/ui.fx",
    "vdecl": "PosUvColor",
    "blend": "ui_masking",
    "z": "disable_all"
  },
  "mesh_trail": {
    "vs_fx": "data/shaders/mesh_trail.fx",
    "vdecl": "PosUvColorTrail",
    "blend": "combinative",
    "z": "test_but_no_write"
  },
  "mesh_trail_no_billboard": {
    "vs_fx": "data/shaders/mesh_trail.fx",
    "vs": "VS_NO_BILLBOARD",
    "vdecl": "PosUvColorTrail",
    "blend": "combinative",
    "rs": "cull_none",
    "z": "test_but_no_write"
  },
  "mesh_trail_test_uvs": {
    "vs_fx": "data/shaders/mesh_trail.fx",
    "vs": "VS_TEST_GABI",
    "vdecl": "PosUv",
    "ps": "PS_GABI",
    "ps_fx": "data/shaders/mesh_trail.fx",
    "blend": "combinative",
    "rs": "cull_none",
    "z": "test_but_no_write"
  },
  "explosion_blast": {
    "vs_fx": "data/shaders/explosion_blast.fx",
    "vdecl": "PosUv"
  }
}