{
  "textures":
  {
    "albedo": "data/textures/props/blanket_Orange/material_Material_Blanket_Orange/blanket_Orange_Base_Color.dds"
    ,
    "normal": "data/textures/props/blanket_Orange/material_Material_Blanket_Orange/blanket_Orange_Normal_OpenGL.dds"
    ,
    "metallic": "data/textures/null_metallic.dds"
    ,
    "roughness": "data/textures/props/blanket_Orange/material_Material_Blanket_Orange/blanket_Orange_Roughness.dds"
    ,
    "emissive": "data/textures/null_emissive.dds"
    ,
    "height": "data/textures/null_height.dds"
    ,
    "ao": "data/textures/props/blanket_Orange/material_Material_Blanket_Orange/blanket_Orange_Mixed_AO.dds"
  }
  ,
  "casts_shadows": true
  ,
  "shadows_material": "data/materials/shadows.material"
}
