{
  "technique": "objs.tech"
  ,
  "textures":
  {
    "albedo": "data/textures/trees/tree1/material_ConiferBark/ConiferBark.dds"
    ,
    "normal": "data/textures/trees/tree1/material_ConiferBark/ConiferBark_Normal.dds"
    ,
    "metallic": "data/textures/null_metallic.dds"
    ,
    "roughness": "data/textures/null_roughness.dds"
    ,
    "emissive": "data/textures/null_emissive.dds"
    ,
    "height": "data/textures/null_height.dds"
    ,
    "ao": "data/textures/null_ao.dds"
  }
  ,
  "casts_shadows": true
  ,
  "shadows_material": "data/materials/shadows.material"
}
