{
  "technique": "objs_alpha_culled_by_gpu.tech"
  ,
  "textures":
  {
    "albedo": "data/textures/trees/tree3/material_tree3_leaves/blatt.dds"
    ,
    "normal": "data/textures/trees/tree3/material_tree3_leaves/blaff_normal.dds"
    ,
    "metallic": "data/textures/null_metallic.dds"
    ,
    "roughness": "data/textures/null_roughness.dds"
    ,
    "emissive": "data/textures/null_emissive.dds"
    ,
    "height": "data/textures/null_height.dds"
    ,
    "ao": "data/textures/null_ao.dds"
  }
  ,
  "casts_shadows": true
  ,
  "shadows_material": "data/materials/trees/tree3/material_tree3_leaves/shadows_material_tree3_leaves_alpha_instanced_gpu.material"
}
