[
  {
    "entity":
    {
      "name": "casa_cinco"
      ,
      "transform":
      {
        "pos": "0.0 0.0 -2.22587e-07"
        ,
        "rotation": "0.0 0.0 0.0 -1.0"
      }
      ,
      "collider":
      {
        "shapes":
        [
          {
            "shape": "trimesh"
            ,
            "collision_mesh": "data/meshes/houses/casa_cinco_prefab/collider_casa_cinco.col_mesh"
            ,
            "group": "scenario"
          }
        ]
      }
      ,
      "render":
      {
        "mesh": "data/meshes/houses/casa_cinco_prefab/casa_cinco.mesh"
        ,
        "color": "0.0 0.0 0.0 1.0"
        ,
        "can_be_instanced": true
        ,
        "materials":
        [
          "data/materials/houses/casa_cinco_prefab/material_casacinco_paredes/material_casacinco_paredes.material"
          ,
          "data/materials/houses/casa_cinco_prefab/material_casacinco_ventanas/material_casacinco_ventanas.material"
        ]
      }
      ,
      "abs_aabb":
      {
      }
    }
  }
]
