{
  "technique": "objs_culled_by_gpu.tech"
  ,
  "textures":
  {
    "albedo": "data/textures/props/sign_Balaji/material_Material_sign_Balaji/sign_balaji_Base_Color.dds"
    ,
    "normal": "data/textures/props/sign_Balaji/material_Material_sign_Balaji/sign_balaji_Normal_OpenGL.dds"
    ,
    "metallic": "data/textures/null_metallic.dds"
    ,
    "roughness": "data/textures/props/sign_Balaji/material_Material_sign_Balaji/sign_balaji_Roughness.dds"
    ,
    "emissive": "data/textures/null_emissive.dds"
    ,
    "height": "data/textures/null_height.dds"
    ,
    "ao": "data/textures/props/sign_Balaji/material_Material_sign_Balaji/sign_balaji_Mixed_AO.dds"
  }
  ,
  "casts_shadows": true
  ,
  "shadows_material": "data/materials/shadows_instanced_gpu.material"
}
