{
  "technique": "objs_culled_by_gpu.tech"
  ,
  "textures":
  {
    "albedo": "data/textures/general/explosive_barrel_debris/material_Material_ExplosiveBarrelDebris/Explosive Barrel_Base_Color.dds"
    ,
    "normal": "data/textures/general/explosive_barrel_debris/material_Material_ExplosiveBarrelDebris/Explosive Barrel_Normal.dds"
    ,
    "metallic": "data/textures/general/explosive_barrel_debris/material_Material_ExplosiveBarrelDebris/Explosive Barrel_Metallic.dds"
    ,
    "roughness": "data/textures/general/explosive_barrel_debris/material_Material_ExplosiveBarrelDebris/Explosive Barrel_Roughness.dds"
    ,
    "emissive": "data/textures/null_emissive.dds"
    ,
    "height": "data/textures/null_height.dds"
    ,
    "ao": "data/textures/general/explosive_barrel_debris/material_Material_ExplosiveBarrelDebris/Explosive Barrel_Mixed_AO.dds"
  }
  ,
  "casts_shadows": true
  ,
  "shadows_material": "data/materials/shadows_instanced_gpu.material"
}
