[
  {
    "entity": {
      "name": "EnemyMelee",
      "transform": {
        "pos": "0 0 0"
      },
      "tags": [
        "enemy",
        "enemyMelee",
        "perception"
      ],
      "render": {
        "color": "2.498 2.537255 0.1686 1",
        "meshes": [
          {
            "mesh": "data/skeletons/enemyMelee/enemyMelee.mesh",
            "material": "data/materials/enemyMelee/enemyMelee.material"
          },
          {
            "mesh": "data/skeletons/enemyMelee/enemyMelee.mesh",
            "material": "data/materials/enemyMelee/enemyMelee_perception.material",
            "state": 1,
            "state_id": "perception",
            "visible": false
          },
          {
            "mesh": "data/skeletons/enemyMelee/enemyMelee.mesh",
            "material": "data/materials/enemyMelee/enemyMelee_blended.material",
            "state": 2,
            "state_id": "blended",
            "visible": false
          },
          {
            "mesh": "data/skeletons/enemyMelee/enemyMelee.mesh",
            "material": "data/materials/enemyMelee/melee_buffed.material",
            "state": 3,
            "state_id": "buffed",
            "visible": false
          },
          {
            "mesh": "data/skeletons/enemyMelee/enemyMelee.mesh",
            "material": "data/materials/enemyMelee/melee_buffed.material",
            "state": 4,
            "visible": false
          },
          {
            "mesh": "data/skeletons/enemyMelee/enemyMelee.mesh",
            "material": "data/materials/enemyMelee/enemyMelee_perception_xray.material",
            "state": 5,
            "state_id": "xray",
            "visible": false
          },
          {
            "mesh": "data/skeletons/enemyMelee/enemyMelee.mesh",
            "material": "data/materials/enemyMelee/enemyMelee_vanish.material",
            "state": 6,
            "state_id": "vanish",
            "visible": false
          },
          {
            "mesh": "unit_quad_xy_centered.mesh",
            "material": "data/materials/explosion_blast.material",
            "state": 7,
            "state_id": "blast",
            "visible": false
          }
        ]
      },
      "material_buffers": {
        "buffers": [
          {
            "buffer_name": "vanish",
            "activate_on_mesh_state": 6,
            "buffer_data": {
              "VanishInnerBorderColor": "1.05 0.06 8.8235 1.0",
              "VanishInnerBorderSize": 0.270,
              "VanishOutterBorderColor": "0.0 0.0 6.608 1.0",
              "VanishOutterBorderSize": 0.15,
              "VanishTotalTime": 3.0,
			  "VanishNoiseScale" : 4.25,
			  "VanishAddedIntensity" : 2.0
            }
          },
          {
            "buffer_name": "blast",
            "activate_on_mesh_state": 7,
            "buffer_data": {
              "BlastScale": 12,
              "BlastThickness": 0.1,
              "BlastIntensity": 8,
              "BlastSpeed": 5
            }
          }
        ]
      },
      "script": {
        "path": "data/scripts/game/enemies/enemyMelee.lua"
      },
      "render_blending": {},
      "armature": {
        "src": "data/skeletons/enemyMelee/enemyMelee.skeleton"
      },
      "enemyMelee_animator": {
        "src": "data/fsm/enemyMelee.fsm"
      },
      "ragdoll": {
        "initial_force": 5
      },
      "character_controller": {
        "movement_speed": 4
      },
      "collider": {
        "shape": "capsule",
        "controller": true,
        "radius": 0.25,
        "height": 1.65,
        "group": "enemy",
        "mask": [
          "scenario",
          "player",
          "enemy",
          "trigger"
        ],
        "railgun_collider": {
          "shape": "box",
          "half_size": "0.15 1.0 0.125",
          "dynamic": true,
          "offset": {
            "pos": "0.0 1.0 0.0"
          },
          "group": "ragdoll"
        }
      },
      "floating_damage": {
        "text_color": "1 1 1 1",
        "outline_color": "0 0 0 1",
        "text_color_critical": "0.95 0.75 0 1",
        "outline_color_critical": "0 0 0 1",
        "offset": "50 0",
        "alive_time": 0.2
      },
      "health_component": {
        "max_health": 70,
        "current_health": 70,
        "death_sound_event": "event:/Enemies/Melee/MeleeDeath"
      },
      "ai_bt_enemy_melee": {
        "bt_file": "data/bt/enemymelee.bt",
        "isPatrol": false,
        "drop_type": "Enemy_Melee_Normal",
        "drop_prob": 0.4,
        "drop_position_offset": "0 1.2 0",
        "drop_min_position_noise": "-0.5 -0.5 -0.5",
        "drop_max_position_noise": "0.5 0.5 0.5",
        "drop_impulse": "0 3 0",
        "drop_min_impulse_noise": "-3 0 -3",
        "drop_max_impulse_noise": "3 0 3",
        "isQuadruped": false,
        "idle_audio_event": "event:/Enemies/Melee/MeleeIdle",
        "idlewar_audio_event": "event:/Enemies/Melee/MeleeIdleWar",
        "attack_audio_event": "event:/Enemies/Melee/MeleeAttack",
        "shout_audio_event": "event:/Enemies/Melee/MeleeShout"
      },
      "local_aabb": {
        "center": "0 1 0",
        "half_size": "1 2 1"
      },
      "pathfinding_agent": {
        "navmesh": "navmesh_mapa_india"
      },
      "abs_aabb": {},
      "status_effects": {},
      "hitboxes": {},
      "feet_controller": {
        "bones": [
          {
            "foot_bone_name": "Bip001 L Foot",
            "downwards_direction": "1 0 0"
          },
          {
            "foot_bone_name": "Bip001 R Foot",
            "downwards_direction": "1 0 0"
          }
        ],
        "footsteps_sound_event": "event:/Enemies/Melee/MeleeBipedFootsteps",
        "quad_footsteps_sound_event": "event:/Enemies/Melee/MeleeQuadrupedFootsteps"
      }
    }
  }
]