[
  {
    "entity":
    {
      "name": "bag_white"
      ,
      "transform":
      {
        "pos": "0.0 0.0 0.0"
        ,
        "rotation": "0.0 0.0 0.0 -1.0"
      }
      ,
      "collider":
      {
        "shapes":
        [
          {
            "shape": "trimesh"
            ,
            "collision_mesh": "data/meshes/props/bag_white/collider_bag_white.col_mesh"
          }
        ]
      }
      ,
      "render":
      {
        "mesh": "data/meshes/props/bag_white/bag_white.mesh"
        ,
        "color": "0.235294 0.529412 0.0235294 1.0"
        ,
        "can_be_instanced": true
        ,
        "materials":
        [
          "data/materials/props/bag_white/material_bag_white/material_bag_white.material"
        ]
      }
      ,
      "abs_aabb":
      {
      }
    }
  }
]
