[
  {
    "entity":
    {
      "name": "Cart"
      ,
      "transform":
      {
        "pos": "0.0951963 0.0 -0.0166495"
      }
      ,
      "collider":
      {
        "shapes":
        [
          {
            "shape": "trimesh"
            ,
            "collision_mesh": "data/meshes/props/Cart/Car_collider.col_mesh"
            ,
            "group": "high_poly"
          }
          ,
          {
            "shape": "box"
            ,
            "half_size": "1.09488 0.089934 0.666351"
            ,
            "offset":
            {
              "pos": "0.131544 0.326981 -0.0177344"
              ,
              "rotation": "-0.0223952 0.143565 -0.152299 0.977595"
            }
            ,
            "group": "low_poly"
          }
          ,
          {
            "shape": "box"
            ,
            "half_size": "0.758751 0.069934 0.352633"
            ,
            "offset":
            {
              "pos": "-0.127019 0.820148 -0.572141"
              ,
              "rotation": "0.673865 -0.0145722 -0.213758 0.707107"
            }
            ,
            "group": "low_poly"
          }
          ,
          {
            "shape": "box"
            ,
            "half_size": "0.758751 0.069934 0.352633"
            ,
            "offset":
            {
              "pos": "0.238212 0.793145 0.570619"
              ,
              "rotation": "0.673865 -0.0145722 -0.213758 0.707107"
            }
            ,
            "group": "low_poly"
          }
          ,
          {
            "shape": "box"
            ,
            "half_size": "0.633644 0.634645 0.0635473"
            ,
            "offset":
            {
              "pos": "-0.244643 0.634229 0.898868"
              ,
              "rotation": "-0.0179479 0.147673 0.00242677 0.98887"
            }
            ,
            "group": "low_poly"
          }
          ,
          {
            "shape": "box"
            ,
            "half_size": "0.633644 0.634645 0.0635473"
            ,
            "offset":
            {
              "pos": "-0.655219 0.62783 -0.57887"
              ,
              "rotation": "-0.0179479 0.147673 0.00242677 0.98887"
            }
            ,
            "group": "low_poly"
          }
        ]
      }
      ,
      "render":
      {
        "mesh": "data/meshes/props/Cart/Cart.mesh"
        ,
        "color": "0.345098 0.780392 0.882353 1.0"
        ,
        "can_be_instanced": true
        ,
        "materials":
        [
          "data/materials/props/Cart/material_Material_Cart/material_Material_Cart.material"
        ]
      }
      ,
	  "tags" : ["wood"],
      "abs_aabb":
      {
      }
    }
  }
]
