[
  {
    "entity":
    {
      "name": "sign"
      ,
      "transform":
      {
        "pos": "0.0 0.0 0.0"
        ,
        "rotation": "0.0 0.0 0.0 -1.0"
      }
      ,
      "collider":
      {
        "shapes":
        [
          {
            "shape": "trimesh"
            ,
            "collision_mesh": "data/meshes/props/sign/collider_sign.col_mesh"
          }
        ]
      }
      ,
      "render":
      {
        "mesh": "data/meshes/props/sign/sign.mesh"
        ,
        "color": "0.776471 0.882353 0.341176 1.0"
        ,
        "can_be_instanced": true
        ,
        "materials":
        [
          "data/materials/props/sign/material_sign/material_sign.material"
        ]
      }
      ,
	  "tags" : ["metal"],
      "abs_aabb":
      {
      }
    }
  }
]
