[
  {
    "entity":
    {
      "name": "tenderetedos_dos"
      ,
      "transform":
      {
        "pos": "0.0 0.0 0.0"
        ,
        "rotation": "0.0 -0.707107 0.0 -0.707107"
      }
      ,
      "collider":
      {
        "shapes":
        [
          {
            "shape": "trimesh"
            ,
            "collision_mesh": "data/meshes/props/tenderete_dos_textdos_prefab/collider_tenderetedos_dos.col_mesh"
            ,
            "group": "scenario"
          }
        ]
      }
      ,
      "render":
      {
        "mesh": "data/meshes/props/tenderete_dos_textdos_prefab/tenderetedos_dos.mesh"
        ,
        "color": "0.341176 0.878431 0.776471 1.0"
        ,
        "can_be_instanced": true
        ,
        "materials":
        [
          "data/materials/props/tenderete_dos_textdos_prefab/material_tenderetedostextdos/material_tenderetedostextdos.material"
        ]
      }
      ,
	  "tags" : ["wood"],
      "abs_aabb":
      {
      }
    }
  }
]
