[
  {
    "entity":
    {
      "name": "paragua_2"
      ,
      "transform":
      {
        "pos": "0.0 0.0 0.0"
        ,
        "rotation": "0.0 0.0 0.0 -1.0"
      }
      ,
      "collider":
      {
        "shapes":
        [
          {
            "shape": "box"
            ,
            "half_size": "0.142608 1.50145 0.140533"
            ,
            "offset":
            {
              "pos": "0.0 1.50145 0.0"
            }
            ,
            "group": "scenario"
          }
        ]
      }
      ,
      "render":
      {
        "mesh": "data/meshes/props/umbrella_2/paragua_2.mesh"
        ,
        "color": "0.0313726 0.431373 0.529412 1.0"
        ,
        "can_be_instanced": true
        ,
        "materials":
        [
          "data/materials/props/umbrella_2/material_Material_Paragua_2/material_Material_Paragua_2.material"
        ]
      }
      ,
      "abs_aabb":
      {
      }
    }
  }
]
