{
  "textures":
  {
    "albedo": "data/textures/props/door_casadepaso/material_Material_door_casadepaso/door_casadepaso_Base_Color.dds"
    ,
    "normal": "data/textures/props/door_casadepaso/material_Material_door_casadepaso/door_casadepaso_Normal_OpenGL.dds"
    ,
    "metallic": "data/textures/props/door_casadepaso/material_Material_door_casadepaso/door_casadepaso_Metallic.dds"
    ,
    "roughness": "data/textures/props/door_casadepaso/material_Material_door_casadepaso/door_casadepaso_Roughness.dds"
    ,
    "emissive": "data/textures/null_emissive.dds"
    ,
    "height": "data/textures/null_height.dds"
    ,
    "ao": "data/textures/props/door_casadepaso/material_Material_door_casadepaso/door_casadepaso_Mixed_AO.dds"
  }
  ,
  "casts_shadows": true
  ,
  "shadows_material": "data/materials/shadows.material"
}
